…
functionName <- function(formals) {
    body
}

A function doesn’t really need a name, but I made the argument that you can use functions to avoid repetition, and then you do need a name. Let’s talk about that situation.

I do not start with the empty template of a function, but with the content. As an example, I will show some code I’ve used and written and rewritten many times in my dissertation, which creates a scatterplot with a certain style. As a background: most of my thesis was about visualization, in particular scatterplots where each dot is an occurrence of a word, and dots that are together are occurrences with similar contexts. For example, the plots of Dutch heffen ‘to lift/to levy’ tend to have groups of tokens co-occurring with belasting ‘tax’ (‘to levy taxes’), with glas ‘glass’ (‘to lift a glass, to toast’) and with body parts (e.g. de handen ten hemel heffen ‘to lift the hands to the heavens’).

My main dataset is a table with coordinates and other variables:

mydf

## # A tibble: 207 x 8
##    `_id`                     model.x model.y cws    cluster membprob   eps sense
##    <chr>                       <dbl>   <dbl> <list> <fct>      <dbl> <dbl> <chr>
##  1 hef/verb/nrc_handelsblad~  18.6    -20.7  <chr ~ 4         0.307   1.91 lift 
##  2 hef/verb/volkskrant_2000~   4.82   -11.2  <chr ~ 0         0       3.71 levy 
##  3 hef/verb/parool_20020720~  12.0    -11.2  <chr ~ 0         0       3.01 lift 
##  4 hef/verb/algemeen_dagbla~ -17.2     14.8  <chr ~ 0         0       3.09 levy 
##  5 hef/verb/algemeen_dagbla~  10.5     -5.27 <chr ~ 0         0       2.77 lift 
##  6 hef/verb/de_morgen_20041~  -4.96     5.87 <chr ~ 0         0       3.20 levy 
##  7 hef/verb/de_standaard_20~  15.9    -10.2  <chr ~ 0         0       3.45 lift 
##  8 hef/verb/het_laatste_nie~   0.480    9.27 <chr ~ 2         0.0847  2.45 levy 
##  9 hef/verb/nrc_handelsblad~ -16.6      7.69 <chr ~ 0         0       2.88 levy 
## 10 hef/verb/volkskrant_2001~ -13.4     16.7  <chr ~ 0         0       2.80 levy 
## # ... with 197 more rows
…
